[gd_scene load_steps=4 format=2]

[ext_resource path="res://blokoj/kosmosxipoj/scenoj/baseSpaceship/cargo.glb" type="PackedScene" id=1]
[ext_resource path="res://blokoj/kosmosxipoj/skriptoj/moduloj/modulo.gd" type="Script" id=2]

[sub_resource type="BoxShape3D" id=1]
extents = Vector3( 3.94345, 1.82996, 1.85188 )

[node name="cargo" type="CollisionShape3D"]
shape = SubResource( 1 )
script = ExtResource( 2 )

[node name="cargo" parent="." instance=ExtResource( 1 )]
