[gd_scene load_steps=3 format=2]

[ext_resource path="res://blokoj/kosmosxipoj/skriptoj/sxipo_fremdulo.gd" type="Script" id=1]

[sub_resource type="CapsuleShape3D" id=1]

[node name="sxipo" type="CharacterBody3D"]
script = ExtResource( 1 )

[node name="CollisionShape3D" type="CollisionShape3D" parent="."]
transform = Transform3D( 3.42192, 0, 0, 0, 5.04557, 0, 0, 0, 9.53607, 0, 0, 0 )
shape = SubResource( 1 )

[node name="control" type="Control" parent="."]
anchor_right = 1.0
anchor_bottom = 1.0
mouse_filter = 2
__meta__ = {
"_edit_use_anchors_": false
}

[node name="rapido" type="Label" parent="control"]
offset_right = 40.0
offset_bottom = 17.0
__meta__ = {
"_edit_use_anchors_": false
}

[node name="timer" type="Timer" parent="."]
wait_time = 5.0

[connection signal="input_event" from="." to="." method="_on_sxipo_input_event"]
[connection signal="timeout" from="timer" to="." method="_on_timer_timeout"]
